<?xml version="1.0" encoding="utf-8"?>
<!-- Generator: Adobe Illustrator 22.1.0, SVG Export Plug-In . SVG Version: 6.00 Build 0)  -->
<svg version="1.1" id="Layer_1" xmlns="http://www.w3.org/2000/svg" xmlns:xlink="http://www.w3.org/1999/xlink" x="0px" y="0px"
	 viewBox="0 0 16 19" style="enable-background:new 0 0 16 19;" xml:space="preserve">
<style type="text/css">
	.st0{fill:#FFFFFF;filter:url(#Adobe_OpacityMaskFilter);}
	.st1{mask:url(#path-1-inside-1_1_);fill:none;stroke:#000000;stroke-width:3;}
	.st2{fill:none;stroke:#000000;stroke-width:1.5;stroke-linecap:round;}
</style>
<defs>
	<filter id="Adobe_OpacityMaskFilter" filterUnits="userSpaceOnUse" x="-1.5" y="-1.5" width="19" height="21.3">
		<feColorMatrix  type="matrix" values="1 0 0 0 0  0 1 0 0 0  0 0 1 0 0  0 0 0 1 0"/>
	</filter>
</defs>
<mask maskUnits="userSpaceOnUse" x="-1.5" y="-1.5" width="19" height="21.3" id="path-1-inside-1_1_">
	<path class="st0" d="M1,0h14c0.6,0,1,0.4,1,1v16.3c0,0.6-0.4,1-1,1H1c-0.6,0-1-0.4-1-1V1C0,0.4,0.4,0,1,0z"/>
</mask>
<path class="st1" d="M1,0h14c0.6,0,1,0.4,1,1v16.3c0,0.6-0.4,1-1,1H1c-0.6,0-1-0.4-1-1V1C0,0.4,0.4,0,1,0z"/>
<line class="st2" x1="4.2" y1="9.5" x2="11.8" y2="9.5"/>
<line class="st2" x1="4.2" y1="13" x2="9.5" y2="13"/>
<circle cx="5.1" cy="5.1" r="1.7"/>
</svg>
