<svg width="32" height="32" viewBox="0 0 32 32" fill="none" xmlns="http://www.w3.org/2000/svg">
<rect width="32" height="32" rx="4" fill="#ABB4B9"/>
<path d="M21.498 22.849C22.16 23.134 23.053 23.532 23.918 23.956L8 23.954C8.864 23.532 9.755 23.134 10.416 22.849C10.521 22.806 11.458 22.411 11.458 22.411C11.458 22.411 14.458 20.893 12.958 19.375C12.351 18.761 11.997 17.649 11.781 16.444C11.432 16.435 10.969 15.671 10.715 14.648C10.447 13.563 10.519 12.61 10.878 12.521C10.919 12.51 10.963 12.515 11.008 12.527C10.901 11.651 10.907 10.819 11.157 10.458C11.932 9.348 12.236 9 12.865 7.945C13.936 6.141 18.96 6 18.96 6C18.96 6 17.548 7.523 18.719 7.947C19.895 8.37 19.961 9.349 20.737 10.459C20.986 10.819 21.011 11.649 20.93 12.526C20.966 12.518 21.001 12.512 21.036 12.521C21.395 12.61 21.466 13.563 21.198 14.648C20.945 15.671 20.482 16.435 20.132 16.444C19.917 17.649 19.562 18.762 18.956 19.375C17.456 20.893 20.456 22.411 20.456 22.411C20.456 22.411 21.393 22.806 21.498 22.849Z" fill="white"/>
</svg>
