<svg width="48" height="48" viewBox="0 0 48 48" fill="none" xmlns="http://www.w3.org/2000/svg">
<circle cx="24" cy="24" r="24" fill="#D4DDE2"/>
<rect x="18" y="23" width="13" height="2" fill="white"/>
<path d="M16 24.0711L23.0711 17L24.4853 18.4142L17.4142 25.4853L16 24.0711Z" fill="white"/>
<path d="M17.4142 22.6569L24.4853 29.7279L23.0711 31.1421L16 24.0711L17.4142 22.6569Z" fill="white"/>
</svg>
