<svg width="12" height="10" viewBox="0 0 12 10" fill="none" xmlns="http://www.w3.org/2000/svg">
<path d="M10.3721 0.000366844C10.1516 0.00669116 9.94201 0.103574 9.78768 0.27055L4.05408 7.4199L1.3708 4.58668C1.28254 4.51424 1.18168 4.46093 1.07398 4.42979C0.966272 4.39865 0.853833 4.39029 0.743079 4.40518C0.632325 4.42008 0.525425 4.45794 0.428482 4.51661C0.33154 4.57528 0.246453 4.65361 0.17808 4.74711C0.109707 4.84062 0.0593877 4.94748 0.0299941 5.06159C0.000600542 5.1757 -0.00729127 5.29483 0.00676916 5.41217C0.0208296 5.52951 0.0565669 5.64277 0.111941 5.74548C0.167315 5.84819 0.241241 5.93834 0.329498 6.01078L3.6078 9.32807C3.7711 9.46236 3.975 9.529 4.18132 9.51554C4.38765 9.50207 4.58228 9.4094 4.72879 9.2549L10.9883 1.54829C11.1117 1.42198 11.1961 1.2591 11.2304 1.08103C11.2648 0.90297 11.2475 0.718051 11.1808 0.550594C11.1141 0.383138 11.0012 0.240973 10.8569 0.142769C10.7125 0.0445658 10.5435 -0.0050755 10.3721 0.000366844Z" fill="white"/>
</svg>
