<svg width="15" height="15" viewBox="0 0 15 15" fill="none" xmlns="http://www.w3.org/2000/svg">
<path d="M7.5 7.25275C9.57107 7.25275 11.25 5.62916 11.25 3.62637C11.25 1.62358 9.57107 0 7.5 0C5.42893 0 3.75 1.62358 3.75 3.62637C3.75 5.62916 5.42893 7.25275 7.5 7.25275Z" fill="#4D4D4D"/>
<path d="M7.5 8.95604C4.65591 8.95604 2.18125 10.2457 0.909639 12.1457C-0.0200758 13.5349 1.36633 15 3.03793 15H11.9621C13.6337 15 15.0201 13.5349 14.0904 12.1457C12.8188 10.2457 10.3441 8.95604 7.5 8.95604Z" fill="#4D4D4D"/>
</svg>
