<svg width="20" height="20" viewBox="0 0 20 20" fill="none" xmlns="http://www.w3.org/2000/svg">
<path d="M19.2943 9.63377C19.1261 9.40368 15.1185 4 10.0001 4C4.88168 4 0.873913 9.40368 0.7059 9.63355C0.546601 9.85183 0.546601 10.1479 0.7059 10.3662C0.873913 10.5963 4.88168 15.9999 10.0001 15.9999C15.1185 15.9999 19.1261 10.5962 19.2943 10.3664C19.4538 10.1481 19.4538 9.85183 19.2943 9.63377ZM10.0001 14.7586C6.22983 14.7586 2.96439 11.172 1.99775 9.99955C2.96314 8.82603 6.22174 5.24137 10.0001 5.24137C13.7701 5.24137 17.0354 8.82727 18.0024 10.0004C17.037 11.1739 13.7784 14.7586 10.0001 14.7586Z" fill="#ABB4B9"/>
<path d="M10 6.04388C7.81867 6.04388 6.04395 7.81861 6.04395 9.99995C6.04395 12.1813 7.81867 13.956 10 13.956C12.1813 13.956 13.9561 12.1813 13.9561 9.99995C13.9561 7.81861 12.1813 6.04388 10 6.04388ZM10 12.6373C8.54571 12.6373 7.36266 11.4542 7.36266 9.99995C7.36266 8.54569 8.54575 7.3626 10 7.3626C11.4543 7.3626 12.6374 8.54569 12.6374 9.99995C12.6374 11.4542 11.4543 12.6373 10 12.6373Z" fill="#ABB4B9"/>
</svg>
