<svg width="34" height="34" viewBox="0 0 34 34" fill="none" xmlns="http://www.w3.org/2000/svg">
<path d="M23.8844 0H10.109C7.42839 0.00523331 4.85917 1.07287 2.96431 2.96897C1.06945 4.86507 0.00348527 7.43498 0 10.1156V23.9042C0.00870974 26.5814 1.07698 29.1462 2.97127 31.038C4.86557 32.9299 7.43181 33.9948 10.109 34H23.8844C26.5627 33.9965 29.1307 32.9324 31.0264 31.0404C32.9221 29.1484 33.9913 26.5825 34 23.9042V10.1156C33.9965 7.43384 32.9296 4.86293 31.0334 2.96664C29.1371 1.07036 26.5662 0.0034896 23.8844 0Z" fill="#CF0A2C"/>
<path d="M18.3773 23.2451C18.0472 23.8048 17.5808 24.2718 17.0216 24.6027C16.4624 24.9336 15.8286 25.1176 15.1791 25.1377C14.491 25.1528 13.8123 24.9757 13.2193 24.6262C12.6264 24.2767 12.1427 23.7687 11.8226 23.1594C10.9786 21.7548 10.5499 19.6447 10.5499 16.8949C10.5499 14.3758 11.005 12.3712 11.8688 10.96C12.1771 10.3902 12.6272 9.90949 13.1757 9.5645C13.7241 9.21951 14.3523 9.02188 14.9994 8.99071C15.6466 8.95955 16.2909 9.0959 16.8699 9.3866C17.4489 9.67729 17.9432 10.1125 18.3048 10.6501C19.228 11.87 20.0061 13.8747 20.56 16.4596C19.894 19.948 19.2082 22.0384 18.3773 23.2451ZM27.7346 21.1745V21.3262C27.7414 21.6176 27.6389 21.901 27.4473 22.1206C27.2557 22.3403 26.9889 22.4803 26.6993 22.5132C26.479 22.5176 26.2606 22.4718 26.0607 22.3793C25.8607 22.2867 25.6845 22.1498 25.5453 21.979C25.0793 21.4311 24.7253 20.7971 24.5034 20.1129C25.4596 16.8751 28.4006 6.50889 28.4006 6.50889H22.8087C22.8087 6.50889 22.2943 8.94218 21.8261 11.1249L21.7536 10.9666C21.2531 9.89502 20.5653 8.92138 19.7226 8.09152C19.0335 7.43763 18.2221 6.92627 17.3349 6.58678C16.4477 6.2473 15.5022 6.08637 14.5527 6.11324C13.2178 6.08804 11.8934 6.35267 10.6707 6.88888C9.44797 7.42509 8.35613 8.22012 7.47043 9.21913C5.58408 11.2898 4.55824 14.0018 4.60193 16.8025C4.60193 20.0535 5.54491 22.7374 7.39789 24.7156C8.30481 25.7324 9.42553 26.5358 10.6797 27.0682C11.9338 27.6007 13.2902 27.8489 14.6516 27.7952C16.4399 27.7877 18.1852 27.2458 19.6632 26.2389C20.7582 25.4861 21.7078 24.541 22.4658 23.4495C22.7118 24.3741 23.1084 25.2519 23.6396 26.0477C23.9712 26.5243 24.4129 26.9141 24.9271 27.1838C25.4414 27.4536 26.0131 27.5954 26.5938 27.5973C27.1661 27.6051 27.7302 27.4616 28.2293 27.1814C28.7283 26.9011 29.1446 26.4942 29.4359 26.0015C29.9305 25.1311 30.1349 24.0232 30.1349 22.2626V21.1811L27.7346 21.1745Z" fill="white"/>
</svg>
